ISO-10303-21;
HEADER;
FILE_DESCRIPTION(('FreeCAD Model'),'2;1');
FILE_NAME('C:/Users/Lucas/Desktop/XAL4030-332MEC.step',
  '2020-04-28T14:17:36',('Author'),(''),
  'Open CASCADE STEP processor 7.3','FreeCAD','Unknown');
FILE_SCHEMA(('AUTOMOTIVE_DESIGN { 1 0 10303 214 1 1 1 1 }'));
ENDSEC;
DATA;
#1 = APPLICATION_PROTOCOL_DEFINITION('international standard',
  'automotive_design',2000,#2);
#2 = APPLICATION_CONTEXT(
  'core data for automotive mechanical design processes');
#3 = SHAPE_DEFINITION_REPRESENTATION(#4,#10);
#4 = PRODUCT_DEFINITION_SHAPE('','',#5);
#5 = PRODUCT_DEFINITION('design','',#6,#9);
#6 = PRODUCT_DEFINITION_FORMATION('','',#7);
#7 = PRODUCT('Body','Body','',(#8));
#8 = PRODUCT_CONTEXT('',#2,'mechanical');
#9 = PRODUCT_DEFINITION_CONTEXT('part definition',#2,'design');
#10 = ADVANCED_BREP_SHAPE_REPRESENTATION('',(#11,#15),#165);
#11 = AXIS2_PLACEMENT_3D('',#12,#13,#14);
#12 = CARTESIAN_POINT('',(0.,0.,0.));
#13 = DIRECTION('',(0.,0.,1.));
#14 = DIRECTION('',(1.,0.,-0.));
#15 = MANIFOLD_SOLID_BREP('',#16);
#16 = CLOSED_SHELL('',(#17,#57,#88,#119,#141,#153));
#17 = ADVANCED_FACE('',(#18),#52,.T.);
#18 = FACE_BOUND('',#19,.T.);
#19 = EDGE_LOOP('',(#20,#30,#38,#46));
#20 = ORIENTED_EDGE('',*,*,#21,.T.);
#21 = EDGE_CURVE('',#22,#24,#26,.T.);
#22 = VERTEX_POINT('',#23);
#23 = CARTESIAN_POINT('',(0.,0.,0.));
#24 = VERTEX_POINT('',#25);
#25 = CARTESIAN_POINT('',(0.,0.,0.1));
#26 = LINE('',#27,#28);
#27 = CARTESIAN_POINT('',(0.,0.,0.));
#28 = VECTOR('',#29,1.);
#29 = DIRECTION('',(0.,0.,1.));
#30 = ORIENTED_EDGE('',*,*,#31,.T.);
#31 = EDGE_CURVE('',#24,#32,#34,.T.);
#32 = VERTEX_POINT('',#33);
#33 = CARTESIAN_POINT('',(0.87,0.,0.1));
#34 = LINE('',#35,#36);
#35 = CARTESIAN_POINT('',(0.,0.,0.1));
#36 = VECTOR('',#37,1.);
#37 = DIRECTION('',(1.,0.,0.));
#38 = ORIENTED_EDGE('',*,*,#39,.F.);
#39 = EDGE_CURVE('',#40,#32,#42,.T.);
#40 = VERTEX_POINT('',#41);
#41 = CARTESIAN_POINT('',(0.87,0.,0.));
#42 = LINE('',#43,#44);
#43 = CARTESIAN_POINT('',(0.87,0.,0.));
#44 = VECTOR('',#45,1.);
#45 = DIRECTION('',(0.,0.,1.));
#46 = ORIENTED_EDGE('',*,*,#47,.F.);
#47 = EDGE_CURVE('',#22,#40,#48,.T.);
#48 = LINE('',#49,#50);
#49 = CARTESIAN_POINT('',(0.,0.,0.));
#50 = VECTOR('',#51,1.);
#51 = DIRECTION('',(1.,0.,0.));
#52 = PLANE('',#53);
#53 = AXIS2_PLACEMENT_3D('',#54,#55,#56);
#54 = CARTESIAN_POINT('',(0.,0.,0.));
#55 = DIRECTION('',(0.,1.,0.));
#56 = DIRECTION('',(1.,0.,0.));
#57 = ADVANCED_FACE('',(#58),#83,.T.);
#58 = FACE_BOUND('',#59,.T.);
#59 = EDGE_LOOP('',(#60,#61,#69,#77));
#60 = ORIENTED_EDGE('',*,*,#39,.T.);
#61 = ORIENTED_EDGE('',*,*,#62,.T.);
#62 = EDGE_CURVE('',#32,#63,#65,.T.);
#63 = VERTEX_POINT('',#64);
#64 = CARTESIAN_POINT('',(0.87,-3.25,0.1));
#65 = LINE('',#66,#67);
#66 = CARTESIAN_POINT('',(0.87,0.,0.1));
#67 = VECTOR('',#68,1.);
#68 = DIRECTION('',(0.,-1.,0.));
#69 = ORIENTED_EDGE('',*,*,#70,.F.);
#70 = EDGE_CURVE('',#71,#63,#73,.T.);
#71 = VERTEX_POINT('',#72);
#72 = CARTESIAN_POINT('',(0.87,-3.25,0.));
#73 = LINE('',#74,#75);
#74 = CARTESIAN_POINT('',(0.87,-3.25,0.));
#75 = VECTOR('',#76,1.);
#76 = DIRECTION('',(0.,0.,1.));
#77 = ORIENTED_EDGE('',*,*,#78,.F.);
#78 = EDGE_CURVE('',#40,#71,#79,.T.);
#79 = LINE('',#80,#81);
#80 = CARTESIAN_POINT('',(0.87,0.,0.));
#81 = VECTOR('',#82,1.);
#82 = DIRECTION('',(0.,-1.,0.));
#83 = PLANE('',#84);
#84 = AXIS2_PLACEMENT_3D('',#85,#86,#87);
#85 = CARTESIAN_POINT('',(0.87,0.,0.));
#86 = DIRECTION('',(1.,0.,0.));
#87 = DIRECTION('',(0.,-1.,0.));
#88 = ADVANCED_FACE('',(#89),#114,.T.);
#89 = FACE_BOUND('',#90,.T.);
#90 = EDGE_LOOP('',(#91,#92,#100,#108));
#91 = ORIENTED_EDGE('',*,*,#70,.T.);
#92 = ORIENTED_EDGE('',*,*,#93,.T.);
#93 = EDGE_CURVE('',#63,#94,#96,.T.);
#94 = VERTEX_POINT('',#95);
#95 = CARTESIAN_POINT('',(0.,-3.25,0.1));
#96 = LINE('',#97,#98);
#97 = CARTESIAN_POINT('',(0.87,-3.25,0.1));
#98 = VECTOR('',#99,1.);
#99 = DIRECTION('',(-1.,0.,0.));
#100 = ORIENTED_EDGE('',*,*,#101,.F.);
#101 = EDGE_CURVE('',#102,#94,#104,.T.);
#102 = VERTEX_POINT('',#103);
#103 = CARTESIAN_POINT('',(0.,-3.25,0.));
#104 = LINE('',#105,#106);
#105 = CARTESIAN_POINT('',(0.,-3.25,0.));
#106 = VECTOR('',#107,1.);
#107 = DIRECTION('',(0.,0.,1.));
#108 = ORIENTED_EDGE('',*,*,#109,.F.);
#109 = EDGE_CURVE('',#71,#102,#110,.T.);
#110 = LINE('',#111,#112);
#111 = CARTESIAN_POINT('',(0.87,-3.25,0.));
#112 = VECTOR('',#113,1.);
#113 = DIRECTION('',(-1.,0.,0.));
#114 = PLANE('',#115);
#115 = AXIS2_PLACEMENT_3D('',#116,#117,#118);
#116 = CARTESIAN_POINT('',(0.87,-3.25,0.));
#117 = DIRECTION('',(0.,-1.,0.));
#118 = DIRECTION('',(-1.,0.,0.));
#119 = ADVANCED_FACE('',(#120),#136,.T.);
#120 = FACE_BOUND('',#121,.T.);
#121 = EDGE_LOOP('',(#122,#123,#129,#130));
#122 = ORIENTED_EDGE('',*,*,#101,.T.);
#123 = ORIENTED_EDGE('',*,*,#124,.T.);
#124 = EDGE_CURVE('',#94,#24,#125,.T.);
#125 = LINE('',#126,#127);
#126 = CARTESIAN_POINT('',(0.,-3.25,0.1));
#127 = VECTOR('',#128,1.);
#128 = DIRECTION('',(0.,1.,0.));
#129 = ORIENTED_EDGE('',*,*,#21,.F.);
#130 = ORIENTED_EDGE('',*,*,#131,.F.);
#131 = EDGE_CURVE('',#102,#22,#132,.T.);
#132 = LINE('',#133,#134);
#133 = CARTESIAN_POINT('',(0.,-3.25,0.));
#134 = VECTOR('',#135,1.);
#135 = DIRECTION('',(0.,1.,0.));
#136 = PLANE('',#137);
#137 = AXIS2_PLACEMENT_3D('',#138,#139,#140);
#138 = CARTESIAN_POINT('',(0.,-3.25,0.));
#139 = DIRECTION('',(-1.,0.,0.));
#140 = DIRECTION('',(0.,1.,0.));
#141 = ADVANCED_FACE('',(#142),#148,.T.);
#142 = FACE_BOUND('',#143,.T.);
#143 = EDGE_LOOP('',(#144,#145,#146,#147));
#144 = ORIENTED_EDGE('',*,*,#47,.T.);
#145 = ORIENTED_EDGE('',*,*,#78,.T.);
#146 = ORIENTED_EDGE('',*,*,#109,.T.);
#147 = ORIENTED_EDGE('',*,*,#131,.T.);
#148 = PLANE('',#149);
#149 = AXIS2_PLACEMENT_3D('',#150,#151,#152);
#150 = CARTESIAN_POINT('',(0.435,-1.625,0.));
#151 = DIRECTION('',(-0.,-0.,-1.));
#152 = DIRECTION('',(-1.,0.,0.));
#153 = ADVANCED_FACE('',(#154),#160,.F.);
#154 = FACE_BOUND('',#155,.F.);
#155 = EDGE_LOOP('',(#156,#157,#158,#159));
#156 = ORIENTED_EDGE('',*,*,#31,.T.);
#157 = ORIENTED_EDGE('',*,*,#62,.T.);
#158 = ORIENTED_EDGE('',*,*,#93,.T.);
#159 = ORIENTED_EDGE('',*,*,#124,.T.);
#160 = PLANE('',#161);
#161 = AXIS2_PLACEMENT_3D('',#162,#163,#164);
#162 = CARTESIAN_POINT('',(0.435,-1.625,0.1));
#163 = DIRECTION('',(-0.,-0.,-1.));
#164 = DIRECTION('',(-1.,0.,0.));
#165 = ( GEOMETRIC_REPRESENTATION_CONTEXT(3) 
GLOBAL_UNCERTAINTY_ASSIGNED_CONTEXT((#169)) GLOBAL_UNIT_ASSIGNED_CONTEXT
((#166,#167,#168)) REPRESENTATION_CONTEXT('Context #1',
  '3D Context with UNIT and UNCERTAINTY') );
#166 = ( LENGTH_UNIT() NAMED_UNIT(*) SI_UNIT(.MILLI.,.METRE.) );
#167 = ( NAMED_UNIT(*) PLANE_ANGLE_UNIT() SI_UNIT($,.RADIAN.) );
#168 = ( NAMED_UNIT(*) SI_UNIT($,.STERADIAN.) SOLID_ANGLE_UNIT() );
#169 = UNCERTAINTY_MEASURE_WITH_UNIT(LENGTH_MEASURE(1.E-07),#166,
  'distance_accuracy_value','confusion accuracy');
#170 = PRODUCT_RELATED_PRODUCT_CATEGORY('part',$,(#7));
#171 = SHAPE_DEFINITION_REPRESENTATION(#172,#178);
#172 = PRODUCT_DEFINITION_SHAPE('','',#173);
#173 = PRODUCT_DEFINITION('design','',#174,#177);
#174 = PRODUCT_DEFINITION_FORMATION('','',#175);
#175 = PRODUCT('Body001','Body001','',(#176));
#176 = PRODUCT_CONTEXT('',#2,'mechanical');
#177 = PRODUCT_DEFINITION_CONTEXT('part definition',#2,'design');
#178 = ADVANCED_BREP_SHAPE_REPRESENTATION('',(#11,#179),#329);
#179 = MANIFOLD_SOLID_BREP('',#180);
#180 = CLOSED_SHELL('',(#181,#221,#252,#283,#305,#317));
#181 = ADVANCED_FACE('',(#182),#216,.T.);
#182 = FACE_BOUND('',#183,.T.);
#183 = EDGE_LOOP('',(#184,#194,#202,#210));
#184 = ORIENTED_EDGE('',*,*,#185,.T.);
#185 = EDGE_CURVE('',#186,#188,#190,.T.);
#186 = VERTEX_POINT('',#187);
#187 = CARTESIAN_POINT('',(2.69,0.,0.));
#188 = VERTEX_POINT('',#189);
#189 = CARTESIAN_POINT('',(2.69,0.,0.1));
#190 = LINE('',#191,#192);
#191 = CARTESIAN_POINT('',(2.69,0.,0.));
#192 = VECTOR('',#193,1.);
#193 = DIRECTION('',(0.,0.,1.));
#194 = ORIENTED_EDGE('',*,*,#195,.T.);
#195 = EDGE_CURVE('',#188,#196,#198,.T.);
#196 = VERTEX_POINT('',#197);
#197 = CARTESIAN_POINT('',(3.56,0.,0.1));
#198 = LINE('',#199,#200);
#199 = CARTESIAN_POINT('',(2.69,0.,0.1));
#200 = VECTOR('',#201,1.);
#201 = DIRECTION('',(1.,0.,0.));
#202 = ORIENTED_EDGE('',*,*,#203,.F.);
#203 = EDGE_CURVE('',#204,#196,#206,.T.);
#204 = VERTEX_POINT('',#205);
#205 = CARTESIAN_POINT('',(3.56,0.,0.));
#206 = LINE('',#207,#208);
#207 = CARTESIAN_POINT('',(3.56,0.,0.));
#208 = VECTOR('',#209,1.);
#209 = DIRECTION('',(0.,0.,1.));
#210 = ORIENTED_EDGE('',*,*,#211,.F.);
#211 = EDGE_CURVE('',#186,#204,#212,.T.);
#212 = LINE('',#213,#214);
#213 = CARTESIAN_POINT('',(2.69,0.,0.));
#214 = VECTOR('',#215,1.);
#215 = DIRECTION('',(1.,0.,0.));
#216 = PLANE('',#217);
#217 = AXIS2_PLACEMENT_3D('',#218,#219,#220);
#218 = CARTESIAN_POINT('',(2.69,0.,0.));
#219 = DIRECTION('',(0.,1.,0.));
#220 = DIRECTION('',(1.,0.,0.));
#221 = ADVANCED_FACE('',(#222),#247,.T.);
#222 = FACE_BOUND('',#223,.T.);
#223 = EDGE_LOOP('',(#224,#225,#233,#241));
#224 = ORIENTED_EDGE('',*,*,#203,.T.);
#225 = ORIENTED_EDGE('',*,*,#226,.T.);
#226 = EDGE_CURVE('',#196,#227,#229,.T.);
#227 = VERTEX_POINT('',#228);
#228 = CARTESIAN_POINT('',(3.56,-3.25,0.1));
#229 = LINE('',#230,#231);
#230 = CARTESIAN_POINT('',(3.56,0.,0.1));
#231 = VECTOR('',#232,1.);
#232 = DIRECTION('',(0.,-1.,0.));
#233 = ORIENTED_EDGE('',*,*,#234,.F.);
#234 = EDGE_CURVE('',#235,#227,#237,.T.);
#235 = VERTEX_POINT('',#236);
#236 = CARTESIAN_POINT('',(3.56,-3.25,0.));
#237 = LINE('',#238,#239);
#238 = CARTESIAN_POINT('',(3.56,-3.25,0.));
#239 = VECTOR('',#240,1.);
#240 = DIRECTION('',(0.,0.,1.));
#241 = ORIENTED_EDGE('',*,*,#242,.F.);
#242 = EDGE_CURVE('',#204,#235,#243,.T.);
#243 = LINE('',#244,#245);
#244 = CARTESIAN_POINT('',(3.56,0.,0.));
#245 = VECTOR('',#246,1.);
#246 = DIRECTION('',(0.,-1.,0.));
#247 = PLANE('',#248);
#248 = AXIS2_PLACEMENT_3D('',#249,#250,#251);
#249 = CARTESIAN_POINT('',(3.56,0.,0.));
#250 = DIRECTION('',(1.,0.,0.));
#251 = DIRECTION('',(0.,-1.,0.));
#252 = ADVANCED_FACE('',(#253),#278,.T.);
#253 = FACE_BOUND('',#254,.T.);
#254 = EDGE_LOOP('',(#255,#256,#264,#272));
#255 = ORIENTED_EDGE('',*,*,#234,.T.);
#256 = ORIENTED_EDGE('',*,*,#257,.T.);
#257 = EDGE_CURVE('',#227,#258,#260,.T.);
#258 = VERTEX_POINT('',#259);
#259 = CARTESIAN_POINT('',(2.69,-3.25,0.1));
#260 = LINE('',#261,#262);
#261 = CARTESIAN_POINT('',(3.56,-3.25,0.1));
#262 = VECTOR('',#263,1.);
#263 = DIRECTION('',(-1.,0.,0.));
#264 = ORIENTED_EDGE('',*,*,#265,.F.);
#265 = EDGE_CURVE('',#266,#258,#268,.T.);
#266 = VERTEX_POINT('',#267);
#267 = CARTESIAN_POINT('',(2.69,-3.25,0.));
#268 = LINE('',#269,#270);
#269 = CARTESIAN_POINT('',(2.69,-3.25,0.));
#270 = VECTOR('',#271,1.);
#271 = DIRECTION('',(0.,0.,1.));
#272 = ORIENTED_EDGE('',*,*,#273,.F.);
#273 = EDGE_CURVE('',#235,#266,#274,.T.);
#274 = LINE('',#275,#276);
#275 = CARTESIAN_POINT('',(3.56,-3.25,0.));
#276 = VECTOR('',#277,1.);
#277 = DIRECTION('',(-1.,0.,0.));
#278 = PLANE('',#279);
#279 = AXIS2_PLACEMENT_3D('',#280,#281,#282);
#280 = CARTESIAN_POINT('',(3.56,-3.25,0.));
#281 = DIRECTION('',(0.,-1.,0.));
#282 = DIRECTION('',(-1.,0.,0.));
#283 = ADVANCED_FACE('',(#284),#300,.T.);
#284 = FACE_BOUND('',#285,.T.);
#285 = EDGE_LOOP('',(#286,#287,#293,#294));
#286 = ORIENTED_EDGE('',*,*,#265,.T.);
#287 = ORIENTED_EDGE('',*,*,#288,.T.);
#288 = EDGE_CURVE('',#258,#188,#289,.T.);
#289 = LINE('',#290,#291);
#290 = CARTESIAN_POINT('',(2.69,-3.25,0.1));
#291 = VECTOR('',#292,1.);
#292 = DIRECTION('',(0.,1.,0.));
#293 = ORIENTED_EDGE('',*,*,#185,.F.);
#294 = ORIENTED_EDGE('',*,*,#295,.F.);
#295 = EDGE_CURVE('',#266,#186,#296,.T.);
#296 = LINE('',#297,#298);
#297 = CARTESIAN_POINT('',(2.69,-3.25,0.));
#298 = VECTOR('',#299,1.);
#299 = DIRECTION('',(0.,1.,0.));
#300 = PLANE('',#301);
#301 = AXIS2_PLACEMENT_3D('',#302,#303,#304);
#302 = CARTESIAN_POINT('',(2.69,-3.25,0.));
#303 = DIRECTION('',(-1.,0.,0.));
#304 = DIRECTION('',(0.,1.,0.));
#305 = ADVANCED_FACE('',(#306),#312,.T.);
#306 = FACE_BOUND('',#307,.T.);
#307 = EDGE_LOOP('',(#308,#309,#310,#311));
#308 = ORIENTED_EDGE('',*,*,#211,.T.);
#309 = ORIENTED_EDGE('',*,*,#242,.T.);
#310 = ORIENTED_EDGE('',*,*,#273,.T.);
#311 = ORIENTED_EDGE('',*,*,#295,.T.);
#312 = PLANE('',#313);
#313 = AXIS2_PLACEMENT_3D('',#314,#315,#316);
#314 = CARTESIAN_POINT('',(3.125,-1.625,0.));
#315 = DIRECTION('',(-0.,-0.,-1.));
#316 = DIRECTION('',(-1.,0.,0.));
#317 = ADVANCED_FACE('',(#318),#324,.F.);
#318 = FACE_BOUND('',#319,.F.);
#319 = EDGE_LOOP('',(#320,#321,#322,#323));
#320 = ORIENTED_EDGE('',*,*,#195,.T.);
#321 = ORIENTED_EDGE('',*,*,#226,.T.);
#322 = ORIENTED_EDGE('',*,*,#257,.T.);
#323 = ORIENTED_EDGE('',*,*,#288,.T.);
#324 = PLANE('',#325);
#325 = AXIS2_PLACEMENT_3D('',#326,#327,#328);
#326 = CARTESIAN_POINT('',(3.125,-1.625,0.1));
#327 = DIRECTION('',(-0.,-0.,-1.));
#328 = DIRECTION('',(-1.,0.,0.));
#329 = ( GEOMETRIC_REPRESENTATION_CONTEXT(3) 
GLOBAL_UNCERTAINTY_ASSIGNED_CONTEXT((#333)) GLOBAL_UNIT_ASSIGNED_CONTEXT
((#330,#331,#332)) REPRESENTATION_CONTEXT('Context #1',
  '3D Context with UNIT and UNCERTAINTY') );
#330 = ( LENGTH_UNIT() NAMED_UNIT(*) SI_UNIT(.MILLI.,.METRE.) );
#331 = ( NAMED_UNIT(*) PLANE_ANGLE_UNIT() SI_UNIT($,.RADIAN.) );
#332 = ( NAMED_UNIT(*) SI_UNIT($,.STERADIAN.) SOLID_ANGLE_UNIT() );
#333 = UNCERTAINTY_MEASURE_WITH_UNIT(LENGTH_MEASURE(1.E-07),#330,
  'distance_accuracy_value','confusion accuracy');
#334 = PRODUCT_RELATED_PRODUCT_CATEGORY('part',$,(#175));
#335 = SHAPE_DEFINITION_REPRESENTATION(#336,#342);
#336 = PRODUCT_DEFINITION_SHAPE('','',#337);
#337 = PRODUCT_DEFINITION('design','',#338,#341);
#338 = PRODUCT_DEFINITION_FORMATION('','',#339);
#339 = PRODUCT('Fillet','Fillet','',(#340));
#340 = PRODUCT_CONTEXT('',#2,'mechanical');
#341 = PRODUCT_DEFINITION_CONTEXT('part definition',#2,'design');
#342 = ADVANCED_BREP_SHAPE_REPRESENTATION('',(#11,#343),#797);
#343 = MANIFOLD_SOLID_BREP('',#344);
#344 = CLOSED_SHELL('',(#345,#385,#452,#477,#502,#535,#559,#583,#608,
    #633,#650,#667,#684,#715,#733,#751,#768,#785));
#345 = ADVANCED_FACE('',(#346),#380,.T.);
#346 = FACE_BOUND('',#347,.T.);
#347 = EDGE_LOOP('',(#348,#358,#366,#374));
#348 = ORIENTED_EDGE('',*,*,#349,.F.);
#349 = EDGE_CURVE('',#350,#352,#354,.T.);
#350 = VERTEX_POINT('',#351);
#351 = CARTESIAN_POINT('',(-0.27,0.525,0.1));
#352 = VERTEX_POINT('',#353);
#353 = CARTESIAN_POINT('',(3.83,0.525,0.1));
#354 = LINE('',#355,#356);
#355 = CARTESIAN_POINT('',(-0.37,0.525,0.1));
#356 = VECTOR('',#357,1.);
#357 = DIRECTION('',(1.,0.,0.));
#358 = ORIENTED_EDGE('',*,*,#359,.T.);
#359 = EDGE_CURVE('',#350,#360,#362,.T.);
#360 = VERTEX_POINT('',#361);
#361 = CARTESIAN_POINT('',(-0.27,0.525,3.));
#362 = LINE('',#363,#364);
#363 = CARTESIAN_POINT('',(-0.27,0.525,0.1));
#364 = VECTOR('',#365,1.);
#365 = DIRECTION('',(0.,0.,1.));
#366 = ORIENTED_EDGE('',*,*,#367,.T.);
#367 = EDGE_CURVE('',#360,#368,#370,.T.);
#368 = VERTEX_POINT('',#369);
#369 = CARTESIAN_POINT('',(3.83,0.525,3.));
#370 = LINE('',#371,#372);
#371 = CARTESIAN_POINT('',(-0.37,0.525,3.));
#372 = VECTOR('',#373,1.);
#373 = DIRECTION('',(1.,0.,0.));
#374 = ORIENTED_EDGE('',*,*,#375,.F.);
#375 = EDGE_CURVE('',#352,#368,#376,.T.);
#376 = LINE('',#377,#378);
#377 = CARTESIAN_POINT('',(3.83,0.525,0.1));
#378 = VECTOR('',#379,1.);
#379 = DIRECTION('',(0.,0.,1.));
#380 = PLANE('',#381);
#381 = AXIS2_PLACEMENT_3D('',#382,#383,#384);
#382 = CARTESIAN_POINT('',(-0.37,0.525,0.1));
#383 = DIRECTION('',(0.,1.,0.));
#384 = DIRECTION('',(1.,0.,0.));
#385 = ADVANCED_FACE('',(#386),#447,.T.);
#386 = FACE_BOUND('',#387,.T.);
#387 = EDGE_LOOP('',(#388,#389,#398,#406,#415,#423,#432,#440));
#388 = ORIENTED_EDGE('',*,*,#349,.T.);
#389 = ORIENTED_EDGE('',*,*,#390,.T.);
#390 = EDGE_CURVE('',#352,#391,#393,.T.);
#391 = VERTEX_POINT('',#392);
#392 = CARTESIAN_POINT('',(3.93,0.425,0.1));
#393 = CIRCLE('',#394,0.1);
#394 = AXIS2_PLACEMENT_3D('',#395,#396,#397);
#395 = CARTESIAN_POINT('',(3.83,0.425,0.1));
#396 = DIRECTION('',(-0.,-0.,-1.));
#397 = DIRECTION('',(0.,-1.,0.));
#398 = ORIENTED_EDGE('',*,*,#399,.T.);
#399 = EDGE_CURVE('',#391,#400,#402,.T.);
#400 = VERTEX_POINT('',#401);
#401 = CARTESIAN_POINT('',(3.93,-3.675,0.1));
#402 = LINE('',#403,#404);
#403 = CARTESIAN_POINT('',(3.93,0.525,0.1));
#404 = VECTOR('',#405,1.);
#405 = DIRECTION('',(0.,-1.,0.));
#406 = ORIENTED_EDGE('',*,*,#407,.T.);
#407 = EDGE_CURVE('',#400,#408,#410,.T.);
#408 = VERTEX_POINT('',#409);
#409 = CARTESIAN_POINT('',(3.83,-3.775,0.1));
#410 = CIRCLE('',#411,0.1);
#411 = AXIS2_PLACEMENT_3D('',#412,#413,#414);
#412 = CARTESIAN_POINT('',(3.83,-3.675,0.1));
#413 = DIRECTION('',(-0.,-0.,-1.));
#414 = DIRECTION('',(0.,-1.,0.));
#415 = ORIENTED_EDGE('',*,*,#416,.T.);
#416 = EDGE_CURVE('',#408,#417,#419,.T.);
#417 = VERTEX_POINT('',#418);
#418 = CARTESIAN_POINT('',(-0.27,-3.775,0.1));
#419 = LINE('',#420,#421);
#420 = CARTESIAN_POINT('',(3.93,-3.775,0.1));
#421 = VECTOR('',#422,1.);
#422 = DIRECTION('',(-1.,0.,0.));
#423 = ORIENTED_EDGE('',*,*,#424,.T.);
#424 = EDGE_CURVE('',#417,#425,#427,.T.);
#425 = VERTEX_POINT('',#426);
#426 = CARTESIAN_POINT('',(-0.37,-3.675,0.1));
#427 = CIRCLE('',#428,0.1);
#428 = AXIS2_PLACEMENT_3D('',#429,#430,#431);
#429 = CARTESIAN_POINT('',(-0.27,-3.675,0.1));
#430 = DIRECTION('',(-0.,-0.,-1.));
#431 = DIRECTION('',(0.,-1.,0.));
#432 = ORIENTED_EDGE('',*,*,#433,.T.);
#433 = EDGE_CURVE('',#425,#434,#436,.T.);
#434 = VERTEX_POINT('',#435);
#435 = CARTESIAN_POINT('',(-0.37,0.425,0.1));
#436 = LINE('',#437,#438);
#437 = CARTESIAN_POINT('',(-0.37,-3.775,0.1));
#438 = VECTOR('',#439,1.);
#439 = DIRECTION('',(0.,1.,0.));
#440 = ORIENTED_EDGE('',*,*,#441,.F.);
#441 = EDGE_CURVE('',#350,#434,#442,.T.);
#442 = CIRCLE('',#443,0.1);
#443 = AXIS2_PLACEMENT_3D('',#444,#445,#446);
#444 = CARTESIAN_POINT('',(-0.27,0.425,0.1));
#445 = DIRECTION('',(-0.,0.,1.));
#446 = DIRECTION('',(0.,-1.,0.));
#447 = PLANE('',#448);
#448 = AXIS2_PLACEMENT_3D('',#449,#450,#451);
#449 = CARTESIAN_POINT('',(1.78,-1.625,0.1));
#450 = DIRECTION('',(6.666279958939E-34,3.33313997947E-34,-1.));
#451 = DIRECTION('',(-1.,0.,-6.666279958939E-34));
#452 = ADVANCED_FACE('',(#453),#472,.T.);
#453 = FACE_BOUND('',#454,.T.);
#454 = EDGE_LOOP('',(#455,#456,#464,#471));
#455 = ORIENTED_EDGE('',*,*,#441,.T.);
#456 = ORIENTED_EDGE('',*,*,#457,.T.);
#457 = EDGE_CURVE('',#434,#458,#460,.T.);
#458 = VERTEX_POINT('',#459);
#459 = CARTESIAN_POINT('',(-0.37,0.425,3.));
#460 = LINE('',#461,#462);
#461 = CARTESIAN_POINT('',(-0.37,0.425,0.1));
#462 = VECTOR('',#463,1.);
#463 = DIRECTION('',(0.,0.,1.));
#464 = ORIENTED_EDGE('',*,*,#465,.T.);
#465 = EDGE_CURVE('',#458,#360,#466,.T.);
#466 = CIRCLE('',#467,0.1);
#467 = AXIS2_PLACEMENT_3D('',#468,#469,#470);
#468 = CARTESIAN_POINT('',(-0.27,0.425,3.));
#469 = DIRECTION('',(6.666279958939E-34,3.33313997947E-34,-1.));
#470 = DIRECTION('',(-1.,1.110223024625E-15,-6.666279958939E-34));
#471 = ORIENTED_EDGE('',*,*,#359,.F.);
#472 = CYLINDRICAL_SURFACE('',#473,0.1);
#473 = AXIS2_PLACEMENT_3D('',#474,#475,#476);
#474 = CARTESIAN_POINT('',(-0.27,0.425,0.1));
#475 = DIRECTION('',(0.,0.,1.));
#476 = DIRECTION('',(0.,1.,0.));
#477 = ADVANCED_FACE('',(#478),#497,.T.);
#478 = FACE_BOUND('',#479,.F.);
#479 = EDGE_LOOP('',(#480,#481,#489,#496));
#480 = ORIENTED_EDGE('',*,*,#390,.T.);
#481 = ORIENTED_EDGE('',*,*,#482,.T.);
#482 = EDGE_CURVE('',#391,#483,#485,.T.);
#483 = VERTEX_POINT('',#484);
#484 = CARTESIAN_POINT('',(3.93,0.425,3.));
#485 = LINE('',#486,#487);
#486 = CARTESIAN_POINT('',(3.93,0.425,0.1));
#487 = VECTOR('',#488,1.);
#488 = DIRECTION('',(0.,0.,1.));
#489 = ORIENTED_EDGE('',*,*,#490,.T.);
#490 = EDGE_CURVE('',#483,#368,#491,.T.);
#491 = CIRCLE('',#492,0.1);
#492 = AXIS2_PLACEMENT_3D('',#493,#494,#495);
#493 = CARTESIAN_POINT('',(3.83,0.425,3.));
#494 = DIRECTION('',(-6.666279958939E-34,-3.33313997947E-34,1.));
#495 = DIRECTION('',(1.,1.110223024625E-15,6.666279958939E-34));
#496 = ORIENTED_EDGE('',*,*,#375,.F.);
#497 = CYLINDRICAL_SURFACE('',#498,0.1);
#498 = AXIS2_PLACEMENT_3D('',#499,#500,#501);
#499 = CARTESIAN_POINT('',(3.83,0.425,0.1));
#500 = DIRECTION('',(0.,0.,1.));
#501 = DIRECTION('',(0.,1.,0.));
#502 = ADVANCED_FACE('',(#503),#530,.T.);
#503 = FACE_BOUND('',#504,.T.);
#504 = EDGE_LOOP('',(#505,#514,#522,#529));
#505 = ORIENTED_EDGE('',*,*,#506,.F.);
#506 = EDGE_CURVE('',#507,#360,#509,.T.);
#507 = VERTEX_POINT('',#508);
#508 = CARTESIAN_POINT('',(-0.27,0.425,3.1));
#509 = CIRCLE('',#510,0.1);
#510 = AXIS2_PLACEMENT_3D('',#511,#512,#513);
#511 = CARTESIAN_POINT('',(-0.27,0.425,3.));
#512 = DIRECTION('',(-1.,4.379659758543E-15,-6.666279958939E-34));
#513 = DIRECTION('',(4.379659758543E-15,1.,3.33313997947E-34));
#514 = ORIENTED_EDGE('',*,*,#515,.T.);
#515 = EDGE_CURVE('',#507,#516,#518,.T.);
#516 = VERTEX_POINT('',#517);
#517 = CARTESIAN_POINT('',(3.83,0.425,3.1));
#518 = LINE('',#519,#520);
#519 = CARTESIAN_POINT('',(-0.37,0.425,3.1));
#520 = VECTOR('',#521,1.);
#521 = DIRECTION('',(1.,0.,0.));
#522 = ORIENTED_EDGE('',*,*,#523,.T.);
#523 = EDGE_CURVE('',#516,#368,#524,.T.);
#524 = CIRCLE('',#525,0.1);
#525 = AXIS2_PLACEMENT_3D('',#526,#527,#528);
#526 = CARTESIAN_POINT('',(3.83,0.425,3.));
#527 = DIRECTION('',(-1.,6.123233995736E-17,-6.666279958939E-34));
#528 = DIRECTION('',(6.123233995736E-17,1.,3.33313997947E-34));
#529 = ORIENTED_EDGE('',*,*,#367,.F.);
#530 = CYLINDRICAL_SURFACE('',#531,0.1);
#531 = AXIS2_PLACEMENT_3D('',#532,#533,#534);
#532 = CARTESIAN_POINT('',(-0.37,0.425,3.));
#533 = DIRECTION('',(1.,0.,0.));
#534 = DIRECTION('',(0.,1.,0.));
#535 = ADVANCED_FACE('',(#536),#554,.T.);
#536 = FACE_BOUND('',#537,.T.);
#537 = EDGE_LOOP('',(#538,#539,#547,#553));
#538 = ORIENTED_EDGE('',*,*,#433,.F.);
#539 = ORIENTED_EDGE('',*,*,#540,.T.);
#540 = EDGE_CURVE('',#425,#541,#543,.T.);
#541 = VERTEX_POINT('',#542);
#542 = CARTESIAN_POINT('',(-0.37,-3.675,3.));
#543 = LINE('',#544,#545);
#544 = CARTESIAN_POINT('',(-0.37,-3.675,0.1));
#545 = VECTOR('',#546,1.);
#546 = DIRECTION('',(0.,0.,1.));
#547 = ORIENTED_EDGE('',*,*,#548,.T.);
#548 = EDGE_CURVE('',#541,#458,#549,.T.);
#549 = LINE('',#550,#551);
#550 = CARTESIAN_POINT('',(-0.37,-3.775,3.));
#551 = VECTOR('',#552,1.);
#552 = DIRECTION('',(0.,1.,0.));
#553 = ORIENTED_EDGE('',*,*,#457,.F.);
#554 = PLANE('',#555);
#555 = AXIS2_PLACEMENT_3D('',#556,#557,#558);
#556 = CARTESIAN_POINT('',(-0.37,-3.775,0.1));
#557 = DIRECTION('',(-1.,0.,0.));
#558 = DIRECTION('',(0.,1.,0.));
#559 = ADVANCED_FACE('',(#560),#578,.T.);
#560 = FACE_BOUND('',#561,.T.);
#561 = EDGE_LOOP('',(#562,#563,#564,#572));
#562 = ORIENTED_EDGE('',*,*,#399,.F.);
#563 = ORIENTED_EDGE('',*,*,#482,.T.);
#564 = ORIENTED_EDGE('',*,*,#565,.T.);
#565 = EDGE_CURVE('',#483,#566,#568,.T.);
#566 = VERTEX_POINT('',#567);
#567 = CARTESIAN_POINT('',(3.93,-3.675,3.));
#568 = LINE('',#569,#570);
#569 = CARTESIAN_POINT('',(3.93,0.525,3.));
#570 = VECTOR('',#571,1.);
#571 = DIRECTION('',(0.,-1.,0.));
#572 = ORIENTED_EDGE('',*,*,#573,.F.);
#573 = EDGE_CURVE('',#400,#566,#574,.T.);
#574 = LINE('',#575,#576);
#575 = CARTESIAN_POINT('',(3.93,-3.675,0.1));
#576 = VECTOR('',#577,1.);
#577 = DIRECTION('',(0.,0.,1.));
#578 = PLANE('',#579);
#579 = AXIS2_PLACEMENT_3D('',#580,#581,#582);
#580 = CARTESIAN_POINT('',(3.93,0.525,0.1));
#581 = DIRECTION('',(1.,0.,0.));
#582 = DIRECTION('',(0.,-1.,0.));
#583 = ADVANCED_FACE('',(#584),#603,.T.);
#584 = FACE_BOUND('',#585,.F.);
#585 = EDGE_LOOP('',(#586,#587,#588,#597));
#586 = ORIENTED_EDGE('',*,*,#424,.T.);
#587 = ORIENTED_EDGE('',*,*,#540,.T.);
#588 = ORIENTED_EDGE('',*,*,#589,.F.);
#589 = EDGE_CURVE('',#590,#541,#592,.T.);
#590 = VERTEX_POINT('',#591);
#591 = CARTESIAN_POINT('',(-0.27,-3.775,3.));
#592 = CIRCLE('',#593,0.1);
#593 = AXIS2_PLACEMENT_3D('',#594,#595,#596);
#594 = CARTESIAN_POINT('',(-0.27,-3.675,3.));
#595 = DIRECTION('',(6.666279958939E-34,3.33313997947E-34,-1.));
#596 = DIRECTION('',(1.665334536938E-15,-1.,-3.33313997947E-34));
#597 = ORIENTED_EDGE('',*,*,#598,.F.);
#598 = EDGE_CURVE('',#417,#590,#599,.T.);
#599 = LINE('',#600,#601);
#600 = CARTESIAN_POINT('',(-0.27,-3.775,0.1));
#601 = VECTOR('',#602,1.);
#602 = DIRECTION('',(0.,0.,1.));
#603 = CYLINDRICAL_SURFACE('',#604,0.1);
#604 = AXIS2_PLACEMENT_3D('',#605,#606,#607);
#605 = CARTESIAN_POINT('',(-0.27,-3.675,0.1));
#606 = DIRECTION('',(0.,0.,1.));
#607 = DIRECTION('',(0.,-1.,0.));
#608 = ADVANCED_FACE('',(#609),#628,.T.);
#609 = FACE_BOUND('',#610,.F.);
#610 = EDGE_LOOP('',(#611,#612,#620,#627));
#611 = ORIENTED_EDGE('',*,*,#407,.T.);
#612 = ORIENTED_EDGE('',*,*,#613,.T.);
#613 = EDGE_CURVE('',#408,#614,#616,.T.);
#614 = VERTEX_POINT('',#615);
#615 = CARTESIAN_POINT('',(3.83,-3.775,3.));
#616 = LINE('',#617,#618);
#617 = CARTESIAN_POINT('',(3.83,-3.775,0.1));
#618 = VECTOR('',#619,1.);
#619 = DIRECTION('',(0.,0.,1.));
#620 = ORIENTED_EDGE('',*,*,#621,.T.);
#621 = EDGE_CURVE('',#614,#566,#622,.T.);
#622 = CIRCLE('',#623,0.1);
#623 = AXIS2_PLACEMENT_3D('',#624,#625,#626);
#624 = CARTESIAN_POINT('',(3.83,-3.675,3.));
#625 = DIRECTION('',(-6.666279958939E-34,-3.33313997947E-34,1.));
#626 = DIRECTION('',(-4.440892098501E-15,-1.,-3.33313997947E-34));
#627 = ORIENTED_EDGE('',*,*,#573,.F.);
#628 = CYLINDRICAL_SURFACE('',#629,0.1);
#629 = AXIS2_PLACEMENT_3D('',#630,#631,#632);
#630 = CARTESIAN_POINT('',(3.83,-3.675,0.1));
#631 = DIRECTION('',(0.,0.,1.));
#632 = DIRECTION('',(1.,0.,0.));
#633 = ADVANCED_FACE('',(#634),#645,.T.);
#634 = FACE_BOUND('',#635,.T.);
#635 = EDGE_LOOP('',(#636,#637,#638,#644));
#636 = ORIENTED_EDGE('',*,*,#416,.F.);
#637 = ORIENTED_EDGE('',*,*,#613,.T.);
#638 = ORIENTED_EDGE('',*,*,#639,.T.);
#639 = EDGE_CURVE('',#614,#590,#640,.T.);
#640 = LINE('',#641,#642);
#641 = CARTESIAN_POINT('',(3.93,-3.775,3.));
#642 = VECTOR('',#643,1.);
#643 = DIRECTION('',(-1.,0.,0.));
#644 = ORIENTED_EDGE('',*,*,#598,.F.);
#645 = PLANE('',#646);
#646 = AXIS2_PLACEMENT_3D('',#647,#648,#649);
#647 = CARTESIAN_POINT('',(3.93,-3.775,0.1));
#648 = DIRECTION('',(0.,-1.,0.));
#649 = DIRECTION('',(-1.,0.,0.));
#650 = ADVANCED_FACE('',(#651),#662,.T.);
#651 = FACE_BOUND('',#652,.T.);
#652 = EDGE_LOOP('',(#653,#660,#661));
#653 = ORIENTED_EDGE('',*,*,#654,.F.);
#654 = EDGE_CURVE('',#507,#458,#655,.T.);
#655 = CIRCLE('',#656,0.1);
#656 = AXIS2_PLACEMENT_3D('',#657,#658,#659);
#657 = CARTESIAN_POINT('',(-0.27,0.425,3.));
#658 = DIRECTION('',(-1.110223024625E-15,-1.,-3.33313997947E-34));
#659 = DIRECTION('',(-1.,1.110223024625E-15,-6.666279958939E-34));
#660 = ORIENTED_EDGE('',*,*,#506,.T.);
#661 = ORIENTED_EDGE('',*,*,#465,.F.);
#662 = SPHERICAL_SURFACE('',#663,0.1);
#663 = AXIS2_PLACEMENT_3D('',#664,#665,#666);
#664 = CARTESIAN_POINT('',(-0.27,0.425,3.));
#665 = DIRECTION('',(6.666279958939E-34,3.33313997947E-34,-1.));
#666 = DIRECTION('',(-1.,1.110223024625E-15,-6.666279958939E-34));
#667 = ADVANCED_FACE('',(#668),#679,.T.);
#668 = FACE_BOUND('',#669,.F.);
#669 = EDGE_LOOP('',(#670,#677,#678));
#670 = ORIENTED_EDGE('',*,*,#671,.F.);
#671 = EDGE_CURVE('',#516,#483,#672,.T.);
#672 = CIRCLE('',#673,0.1);
#673 = AXIS2_PLACEMENT_3D('',#674,#675,#676);
#674 = CARTESIAN_POINT('',(3.83,0.425,3.));
#675 = DIRECTION('',(-1.110223024625E-15,1.,3.33313997947E-34));
#676 = DIRECTION('',(1.,1.110223024625E-15,6.666279958939E-34));
#677 = ORIENTED_EDGE('',*,*,#523,.T.);
#678 = ORIENTED_EDGE('',*,*,#490,.F.);
#679 = SPHERICAL_SURFACE('',#680,0.1);
#680 = AXIS2_PLACEMENT_3D('',#681,#682,#683);
#681 = CARTESIAN_POINT('',(3.83,0.425,3.));
#682 = DIRECTION('',(6.666279958939E-34,3.33313997947E-34,-1.));
#683 = DIRECTION('',(1.,1.110223024625E-15,6.666279958939E-34));
#684 = ADVANCED_FACE('',(#685),#710,.F.);
#685 = FACE_BOUND('',#686,.F.);
#686 = EDGE_LOOP('',(#687,#697,#703,#704));
#687 = ORIENTED_EDGE('',*,*,#688,.T.);
#688 = EDGE_CURVE('',#689,#691,#693,.T.);
#689 = VERTEX_POINT('',#690);
#690 = CARTESIAN_POINT('',(3.83,-3.675,3.1));
#691 = VERTEX_POINT('',#692);
#692 = CARTESIAN_POINT('',(-0.27,-3.675,3.1));
#693 = LINE('',#694,#695);
#694 = CARTESIAN_POINT('',(3.93,-3.675,3.1));
#695 = VECTOR('',#696,1.);
#696 = DIRECTION('',(-1.,0.,0.));
#697 = ORIENTED_EDGE('',*,*,#698,.T.);
#698 = EDGE_CURVE('',#691,#507,#699,.T.);
#699 = LINE('',#700,#701);
#700 = CARTESIAN_POINT('',(-0.27,-3.775,3.1));
#701 = VECTOR('',#702,1.);
#702 = DIRECTION('',(0.,1.,0.));
#703 = ORIENTED_EDGE('',*,*,#515,.T.);
#704 = ORIENTED_EDGE('',*,*,#705,.T.);
#705 = EDGE_CURVE('',#516,#689,#706,.T.);
#706 = LINE('',#707,#708);
#707 = CARTESIAN_POINT('',(3.83,0.525,3.1));
#708 = VECTOR('',#709,1.);
#709 = DIRECTION('',(0.,-1.,0.));
#710 = PLANE('',#711);
#711 = AXIS2_PLACEMENT_3D('',#712,#713,#714);
#712 = CARTESIAN_POINT('',(1.78,-1.625,3.1));
#713 = DIRECTION('',(6.666279958939E-34,3.33313997947E-34,-1.));
#714 = DIRECTION('',(-1.,0.,-6.666279958939E-34));
#715 = ADVANCED_FACE('',(#716),#728,.T.);
#716 = FACE_BOUND('',#717,.T.);
#717 = EDGE_LOOP('',(#718,#725,#726,#727));
#718 = ORIENTED_EDGE('',*,*,#719,.F.);
#719 = EDGE_CURVE('',#691,#541,#720,.T.);
#720 = CIRCLE('',#721,0.1);
#721 = AXIS2_PLACEMENT_3D('',#722,#723,#724);
#722 = CARTESIAN_POINT('',(-0.27,-3.675,3.));
#723 = DIRECTION('',(-4.490682061006E-15,-1.,-3.33313997947E-34));
#724 = DIRECTION('',(-1.,4.490682061006E-15,-6.666279958939E-34));
#725 = ORIENTED_EDGE('',*,*,#698,.T.);
#726 = ORIENTED_EDGE('',*,*,#654,.T.);
#727 = ORIENTED_EDGE('',*,*,#548,.F.);
#728 = CYLINDRICAL_SURFACE('',#729,0.1);
#729 = AXIS2_PLACEMENT_3D('',#730,#731,#732);
#730 = CARTESIAN_POINT('',(-0.27,-3.775,3.));
#731 = DIRECTION('',(0.,1.,0.));
#732 = DIRECTION('',(-1.,0.,0.));
#733 = ADVANCED_FACE('',(#734),#746,.T.);
#734 = FACE_BOUND('',#735,.T.);
#735 = EDGE_LOOP('',(#736,#737,#738,#745));
#736 = ORIENTED_EDGE('',*,*,#671,.F.);
#737 = ORIENTED_EDGE('',*,*,#705,.T.);
#738 = ORIENTED_EDGE('',*,*,#739,.T.);
#739 = EDGE_CURVE('',#689,#566,#740,.T.);
#740 = CIRCLE('',#741,0.1);
#741 = AXIS2_PLACEMENT_3D('',#742,#743,#744);
#742 = CARTESIAN_POINT('',(3.83,-3.675,3.));
#743 = DIRECTION('',(8.943016536959E-15,1.,3.33313997947E-34));
#744 = DIRECTION('',(1.,-8.943016536959E-15,6.666279958939E-34));
#745 = ORIENTED_EDGE('',*,*,#565,.F.);
#746 = CYLINDRICAL_SURFACE('',#747,0.1);
#747 = AXIS2_PLACEMENT_3D('',#748,#749,#750);
#748 = CARTESIAN_POINT('',(3.83,0.525,3.));
#749 = DIRECTION('',(0.,-1.,0.));
#750 = DIRECTION('',(1.,0.,0.));
#751 = ADVANCED_FACE('',(#752),#763,.T.);
#752 = FACE_BOUND('',#753,.T.);
#753 = EDGE_LOOP('',(#754,#761,#762));
#754 = ORIENTED_EDGE('',*,*,#755,.F.);
#755 = EDGE_CURVE('',#691,#590,#756,.T.);
#756 = CIRCLE('',#757,0.1);
#757 = AXIS2_PLACEMENT_3D('',#758,#759,#760);
#758 = CARTESIAN_POINT('',(-0.27,-3.675,3.));
#759 = DIRECTION('',(1.,1.665334536938E-15,6.666279958939E-34));
#760 = DIRECTION('',(1.665334536938E-15,-1.,-3.33313997947E-34));
#761 = ORIENTED_EDGE('',*,*,#719,.T.);
#762 = ORIENTED_EDGE('',*,*,#589,.F.);
#763 = SPHERICAL_SURFACE('',#764,0.1);
#764 = AXIS2_PLACEMENT_3D('',#765,#766,#767);
#765 = CARTESIAN_POINT('',(-0.27,-3.675,3.));
#766 = DIRECTION('',(6.666279958939E-34,3.33313997947E-34,-1.));
#767 = DIRECTION('',(1.665334536938E-15,-1.,-3.33313997947E-34));
#768 = ADVANCED_FACE('',(#769),#780,.T.);
#769 = FACE_BOUND('',#770,.F.);
#770 = EDGE_LOOP('',(#771,#778,#779));
#771 = ORIENTED_EDGE('',*,*,#772,.F.);
#772 = EDGE_CURVE('',#689,#614,#773,.T.);
#773 = CIRCLE('',#774,0.1);
#774 = AXIS2_PLACEMENT_3D('',#775,#776,#777);
#775 = CARTESIAN_POINT('',(3.83,-3.675,3.));
#776 = DIRECTION('',(1.,-4.440892098501E-15,6.666279958939E-34));
#777 = DIRECTION('',(-4.440892098501E-15,-1.,-3.33313997947E-34));
#778 = ORIENTED_EDGE('',*,*,#739,.T.);
#779 = ORIENTED_EDGE('',*,*,#621,.F.);
#780 = SPHERICAL_SURFACE('',#781,0.1);
#781 = AXIS2_PLACEMENT_3D('',#782,#783,#784);
#782 = CARTESIAN_POINT('',(3.83,-3.675,3.));
#783 = DIRECTION('',(6.666279958939E-34,3.33313997947E-34,-1.));
#784 = DIRECTION('',(-4.440892098501E-15,-1.,-3.33313997947E-34));
#785 = ADVANCED_FACE('',(#786),#792,.T.);
#786 = FACE_BOUND('',#787,.T.);
#787 = EDGE_LOOP('',(#788,#789,#790,#791));
#788 = ORIENTED_EDGE('',*,*,#772,.F.);
#789 = ORIENTED_EDGE('',*,*,#688,.T.);
#790 = ORIENTED_EDGE('',*,*,#755,.T.);
#791 = ORIENTED_EDGE('',*,*,#639,.F.);
#792 = CYLINDRICAL_SURFACE('',#793,0.1);
#793 = AXIS2_PLACEMENT_3D('',#794,#795,#796);
#794 = CARTESIAN_POINT('',(3.93,-3.675,3.));
#795 = DIRECTION('',(-1.,0.,0.));
#796 = DIRECTION('',(0.,-1.,0.));
#797 = ( GEOMETRIC_REPRESENTATION_CONTEXT(3) 
GLOBAL_UNCERTAINTY_ASSIGNED_CONTEXT((#801)) GLOBAL_UNIT_ASSIGNED_CONTEXT
((#798,#799,#800)) REPRESENTATION_CONTEXT('Context #1',
  '3D Context with UNIT and UNCERTAINTY') );
#798 = ( LENGTH_UNIT() NAMED_UNIT(*) SI_UNIT(.MILLI.,.METRE.) );
#799 = ( NAMED_UNIT(*) PLANE_ANGLE_UNIT() SI_UNIT($,.RADIAN.) );
#800 = ( NAMED_UNIT(*) SI_UNIT($,.STERADIAN.) SOLID_ANGLE_UNIT() );
#801 = UNCERTAINTY_MEASURE_WITH_UNIT(LENGTH_MEASURE(1.E-07),#798,
  'distance_accuracy_value','confusion accuracy');
#802 = PRODUCT_RELATED_PRODUCT_CATEGORY('part',$,(#339));
#803 = MECHANICAL_DESIGN_GEOMETRIC_PRESENTATION_REPRESENTATION('',(#804)
  ,#165);
#804 = STYLED_ITEM('color',(#805),#15);
#805 = PRESENTATION_STYLE_ASSIGNMENT((#806,#812));
#806 = SURFACE_STYLE_USAGE(.BOTH.,#807);
#807 = SURFACE_SIDE_STYLE('',(#808));
#808 = SURFACE_STYLE_FILL_AREA(#809);
#809 = FILL_AREA_STYLE('',(#810));
#810 = FILL_AREA_STYLE_COLOUR('',#811);
#811 = COLOUR_RGB('',0.800000011921,0.800000011921,0.800000011921);
#812 = CURVE_STYLE('',#813,POSITIVE_LENGTH_MEASURE(0.1),#811);
#813 = DRAUGHTING_PRE_DEFINED_CURVE_FONT('continuous');
#814 = MECHANICAL_DESIGN_GEOMETRIC_PRESENTATION_REPRESENTATION('',(#815,
    #823,#830,#837,#844,#851,#858,#865,#872,#879,#886,#893,#900,#907,
    #914,#921,#928,#935),#797);
#815 = STYLED_ITEM('color',(#816),#345);
#816 = PRESENTATION_STYLE_ASSIGNMENT((#817));
#817 = SURFACE_STYLE_USAGE(.BOTH.,#818);
#818 = SURFACE_SIDE_STYLE('',(#819));
#819 = SURFACE_STYLE_FILL_AREA(#820);
#820 = FILL_AREA_STYLE('',(#821));
#821 = FILL_AREA_STYLE_COLOUR('',#822);
#822 = COLOUR_RGB('',0.388235300779,0.388235300779,0.388235300779);
#823 = STYLED_ITEM('color',(#824),#385);
#824 = PRESENTATION_STYLE_ASSIGNMENT((#825));
#825 = SURFACE_STYLE_USAGE(.BOTH.,#826);
#826 = SURFACE_SIDE_STYLE('',(#827));
#827 = SURFACE_STYLE_FILL_AREA(#828);
#828 = FILL_AREA_STYLE('',(#829));
#829 = FILL_AREA_STYLE_COLOUR('',#822);
#830 = STYLED_ITEM('color',(#831),#452);
#831 = PRESENTATION_STYLE_ASSIGNMENT((#832));
#832 = SURFACE_STYLE_USAGE(.BOTH.,#833);
#833 = SURFACE_SIDE_STYLE('',(#834));
#834 = SURFACE_STYLE_FILL_AREA(#835);
#835 = FILL_AREA_STYLE('',(#836));
#836 = FILL_AREA_STYLE_COLOUR('',#822);
#837 = STYLED_ITEM('color',(#838),#477);
#838 = PRESENTATION_STYLE_ASSIGNMENT((#839));
#839 = SURFACE_STYLE_USAGE(.BOTH.,#840);
#840 = SURFACE_SIDE_STYLE('',(#841));
#841 = SURFACE_STYLE_FILL_AREA(#842);
#842 = FILL_AREA_STYLE('',(#843));
#843 = FILL_AREA_STYLE_COLOUR('',#822);
#844 = STYLED_ITEM('color',(#845),#502);
#845 = PRESENTATION_STYLE_ASSIGNMENT((#846));
#846 = SURFACE_STYLE_USAGE(.BOTH.,#847);
#847 = SURFACE_SIDE_STYLE('',(#848));
#848 = SURFACE_STYLE_FILL_AREA(#849);
#849 = FILL_AREA_STYLE('',(#850));
#850 = FILL_AREA_STYLE_COLOUR('',#822);
#851 = STYLED_ITEM('color',(#852),#535);
#852 = PRESENTATION_STYLE_ASSIGNMENT((#853));
#853 = SURFACE_STYLE_USAGE(.BOTH.,#854);
#854 = SURFACE_SIDE_STYLE('',(#855));
#855 = SURFACE_STYLE_FILL_AREA(#856);
#856 = FILL_AREA_STYLE('',(#857));
#857 = FILL_AREA_STYLE_COLOUR('',#822);
#858 = STYLED_ITEM('color',(#859),#559);
#859 = PRESENTATION_STYLE_ASSIGNMENT((#860));
#860 = SURFACE_STYLE_USAGE(.BOTH.,#861);
#861 = SURFACE_SIDE_STYLE('',(#862));
#862 = SURFACE_STYLE_FILL_AREA(#863);
#863 = FILL_AREA_STYLE('',(#864));
#864 = FILL_AREA_STYLE_COLOUR('',#822);
#865 = STYLED_ITEM('color',(#866),#583);
#866 = PRESENTATION_STYLE_ASSIGNMENT((#867));
#867 = SURFACE_STYLE_USAGE(.BOTH.,#868);
#868 = SURFACE_SIDE_STYLE('',(#869));
#869 = SURFACE_STYLE_FILL_AREA(#870);
#870 = FILL_AREA_STYLE('',(#871));
#871 = FILL_AREA_STYLE_COLOUR('',#822);
#872 = STYLED_ITEM('color',(#873),#608);
#873 = PRESENTATION_STYLE_ASSIGNMENT((#874));
#874 = SURFACE_STYLE_USAGE(.BOTH.,#875);
#875 = SURFACE_SIDE_STYLE('',(#876));
#876 = SURFACE_STYLE_FILL_AREA(#877);
#877 = FILL_AREA_STYLE('',(#878));
#878 = FILL_AREA_STYLE_COLOUR('',#822);
#879 = STYLED_ITEM('color',(#880),#633);
#880 = PRESENTATION_STYLE_ASSIGNMENT((#881));
#881 = SURFACE_STYLE_USAGE(.BOTH.,#882);
#882 = SURFACE_SIDE_STYLE('',(#883));
#883 = SURFACE_STYLE_FILL_AREA(#884);
#884 = FILL_AREA_STYLE('',(#885));
#885 = FILL_AREA_STYLE_COLOUR('',#822);
#886 = STYLED_ITEM('color',(#887),#650);
#887 = PRESENTATION_STYLE_ASSIGNMENT((#888));
#888 = SURFACE_STYLE_USAGE(.BOTH.,#889);
#889 = SURFACE_SIDE_STYLE('',(#890));
#890 = SURFACE_STYLE_FILL_AREA(#891);
#891 = FILL_AREA_STYLE('',(#892));
#892 = FILL_AREA_STYLE_COLOUR('',#822);
#893 = STYLED_ITEM('color',(#894),#667);
#894 = PRESENTATION_STYLE_ASSIGNMENT((#895));
#895 = SURFACE_STYLE_USAGE(.BOTH.,#896);
#896 = SURFACE_SIDE_STYLE('',(#897));
#897 = SURFACE_STYLE_FILL_AREA(#898);
#898 = FILL_AREA_STYLE('',(#899));
#899 = FILL_AREA_STYLE_COLOUR('',#822);
#900 = STYLED_ITEM('color',(#901),#684);
#901 = PRESENTATION_STYLE_ASSIGNMENT((#902));
#902 = SURFACE_STYLE_USAGE(.BOTH.,#903);
#903 = SURFACE_SIDE_STYLE('',(#904));
#904 = SURFACE_STYLE_FILL_AREA(#905);
#905 = FILL_AREA_STYLE('',(#906));
#906 = FILL_AREA_STYLE_COLOUR('',#822);
#907 = STYLED_ITEM('color',(#908),#715);
#908 = PRESENTATION_STYLE_ASSIGNMENT((#909));
#909 = SURFACE_STYLE_USAGE(.BOTH.,#910);
#910 = SURFACE_SIDE_STYLE('',(#911));
#911 = SURFACE_STYLE_FILL_AREA(#912);
#912 = FILL_AREA_STYLE('',(#913));
#913 = FILL_AREA_STYLE_COLOUR('',#822);
#914 = STYLED_ITEM('color',(#915),#733);
#915 = PRESENTATION_STYLE_ASSIGNMENT((#916));
#916 = SURFACE_STYLE_USAGE(.BOTH.,#917);
#917 = SURFACE_SIDE_STYLE('',(#918));
#918 = SURFACE_STYLE_FILL_AREA(#919);
#919 = FILL_AREA_STYLE('',(#920));
#920 = FILL_AREA_STYLE_COLOUR('',#822);
#921 = STYLED_ITEM('color',(#922),#751);
#922 = PRESENTATION_STYLE_ASSIGNMENT((#923));
#923 = SURFACE_STYLE_USAGE(.BOTH.,#924);
#924 = SURFACE_SIDE_STYLE('',(#925));
#925 = SURFACE_STYLE_FILL_AREA(#926);
#926 = FILL_AREA_STYLE('',(#927));
#927 = FILL_AREA_STYLE_COLOUR('',#822);
#928 = STYLED_ITEM('color',(#929),#768);
#929 = PRESENTATION_STYLE_ASSIGNMENT((#930));
#930 = SURFACE_STYLE_USAGE(.BOTH.,#931);
#931 = SURFACE_SIDE_STYLE('',(#932));
#932 = SURFACE_STYLE_FILL_AREA(#933);
#933 = FILL_AREA_STYLE('',(#934));
#934 = FILL_AREA_STYLE_COLOUR('',#822);
#935 = STYLED_ITEM('color',(#936),#785);
#936 = PRESENTATION_STYLE_ASSIGNMENT((#937));
#937 = SURFACE_STYLE_USAGE(.BOTH.,#938);
#938 = SURFACE_SIDE_STYLE('',(#939));
#939 = SURFACE_STYLE_FILL_AREA(#940);
#940 = FILL_AREA_STYLE('',(#941));
#941 = FILL_AREA_STYLE_COLOUR('',#822);
#942 = MECHANICAL_DESIGN_GEOMETRIC_PRESENTATION_REPRESENTATION('',(#943)
  ,#329);
#943 = STYLED_ITEM('color',(#944),#179);
#944 = PRESENTATION_STYLE_ASSIGNMENT((#945,#950));
#945 = SURFACE_STYLE_USAGE(.BOTH.,#946);
#946 = SURFACE_SIDE_STYLE('',(#947));
#947 = SURFACE_STYLE_FILL_AREA(#948);
#948 = FILL_AREA_STYLE('',(#949));
#949 = FILL_AREA_STYLE_COLOUR('',#811);
#950 = CURVE_STYLE('',#951,POSITIVE_LENGTH_MEASURE(0.1),#811);
#951 = DRAUGHTING_PRE_DEFINED_CURVE_FONT('continuous');
ENDSEC;
END-ISO-10303-21;
