(module MountingHole_2.7mm_M2.5_DIN965 (layer F.Cu) (tedit 5E8E7F88)
  (descr "Mounting Hole 2.7mm, no annular, M2.5, DIN965")
  (tags "mounting hole 2.7mm no annular m2.5 din965")
  (attr virtual)
  (fp_text reference REF** (at 0 -3.35) (layer F.SilkS) hide
    (effects (font (size 1 1) (thickness 0.15)))
  )
  (fp_text value MountingHole_2.7mm_M2.5_DIN965 (at 0 3.35) (layer F.Fab)
    (effects (font (size 1 1) (thickness 0.15)))
  )
  (fp_circle (center 0 0) (end 2.6 0) (layer F.CrtYd) (width 0.05))
  (fp_circle (center 0 0) (end 2.35 0) (layer Cmts.User) (width 0.15))
  (fp_text user %R (at 0.3 0) (layer F.Fab)
    (effects (font (size 1 1) (thickness 0.15)))
  )
  (pad 1 np_thru_hole circle (at 0 0) (size 2.7 2.7) (drill 2.7) (layers *.Cu *.Mask))
)
