(module L_Bourns-SRN6028 (layer F.Cu) (tedit 5E944ACD)
  (descr "Bourns SRN6028 series SMD inductor")
  (tags "Bourns SRN6028 SMD inductor")
  (attr smd)
  (fp_text reference REF** (at 0 4) (layer F.SilkS)
    (effects (font (size 1 1) (thickness 0.15)))
  )
  (fp_text value L_Bourns-SRN6028 (at 0 -4) (layer F.Fab)
    (effects (font (size 1 1) (thickness 0.15)))
  )
  (fp_line (start -3.3 -3.1) (end -3.3 3.1) (layer F.CrtYd) (width 0.05))
  (fp_line (start 3.3 3.1) (end -3.3 3.1) (layer F.CrtYd) (width 0.05))
  (fp_line (start 3.3 -3.1) (end 3.3 3.1) (layer F.CrtYd) (width 0.05))
  (fp_line (start -3.3 -3.1) (end 3.3 -3.1) (layer F.CrtYd) (width 0.05))
  (fp_line (start -3.4 3.2) (end -2 3.2) (layer F.SilkS) (width 0.12))
  (fp_line (start 3.4 3.2) (end 2 3.2) (layer F.SilkS) (width 0.12))
  (fp_line (start -3.4 3.2) (end -3.4 2) (layer F.SilkS) (width 0.12))
  (fp_line (start 3.4 3.2) (end 3.4 2) (layer F.SilkS) (width 0.12))
  (fp_line (start 3.4 -3.2) (end 3.4 -2) (layer F.SilkS) (width 0.12))
  (fp_line (start 3.4 -3.2) (end 2 -3.2) (layer F.SilkS) (width 0.12))
  (fp_line (start 3.3 -3.1) (end 3.3 3.1) (layer F.Fab) (width 0.1))
  (fp_line (start -3.3 -3.1) (end -3.3 3.1) (layer F.Fab) (width 0.1))
  (fp_line (start -3.4 -3.2) (end -2 -3.2) (layer F.SilkS) (width 0.12))
  (fp_line (start -3.4 -3.2) (end -3.4 -2) (layer F.SilkS) (width 0.12))
  (fp_line (start -3.3 -3.1) (end 3.3 -3.1) (layer F.Fab) (width 0.1))
  (fp_line (start 3.3 3.1) (end -3.3 3.1) (layer F.Fab) (width 0.1))
  (fp_text user %R (at 0 0) (layer F.Fab)
    (effects (font (size 1 1) (thickness 0.15)))
  )
  (pad 2 smd rect (at 2.35 0) (size 1.6 5.7) (layers F.Cu F.Paste F.Mask))
  (pad 1 smd rect (at -2.35 0) (size 1.6 5.7) (layers F.Cu F.Paste F.Mask))
  (model ${KIPRJMOD}/3d_models/SRN6028.stp
    (offset (xyz 2.9 2.9 2.9))
    (scale (xyz 1 1 1))
    (rotate (xyz 90 0 0))
  )
)
