(module IDC-Header_2x03_P2.54mm_Vertical (layer F.Cu) (tedit 5EA88D17)
  (descr "Through hole straight IDC box header, 2x03, 2.54mm pitch, double rows")
  (tags "Through hole IDC box header THT 2x03 2.54mm double row")
  (fp_text reference REF** (at 1.27 -6.604) (layer F.SilkS)
    (effects (font (size 1 1) (thickness 0.15)))
  )
  (fp_text value IDC-Header_2x03_P2.54mm_Vertical (at 4.8 5.2 90) (layer F.Fab)
    (effects (font (size 0.3 0.3) (thickness 0.05)))
  )
  (fp_line (start -3.655 -5.6) (end -1.115 -5.6) (layer F.SilkS) (width 0.12))
  (fp_line (start -3.655 -5.6) (end -3.655 -3.06) (layer F.SilkS) (width 0.12))
  (fp_line (start -3.405 -5.35) (end 5.945 -5.35) (layer F.SilkS) (width 0.12))
  (fp_line (start -3.405 10.43) (end -3.405 -5.35) (layer F.SilkS) (width 0.12))
  (fp_line (start 5.945 10.43) (end -3.405 10.43) (layer F.SilkS) (width 0.12))
  (fp_line (start 5.945 -5.35) (end 5.945 10.43) (layer F.SilkS) (width 0.12))
  (fp_line (start -3.41 -5.35) (end 5.95 -5.35) (layer F.CrtYd) (width 0.05))
  (fp_line (start -3.41 10.43) (end -3.41 -5.35) (layer F.CrtYd) (width 0.05))
  (fp_line (start 5.95 10.43) (end -3.41 10.43) (layer F.CrtYd) (width 0.05))
  (fp_line (start 5.95 -5.35) (end 5.95 10.43) (layer F.CrtYd) (width 0.05))
  (fp_line (start -3.155 10.18) (end -2.605 9.62) (layer F.Fab) (width 0.1))
  (fp_line (start -3.155 -5.1) (end -2.605 -4.56) (layer F.Fab) (width 0.1))
  (fp_line (start 5.695 10.18) (end 5.145 9.62) (layer F.Fab) (width 0.1))
  (fp_line (start 5.695 -5.1) (end 5.145 -4.56) (layer F.Fab) (width 0.1))
  (fp_line (start 5.145 9.62) (end -2.605 9.62) (layer F.Fab) (width 0.1))
  (fp_line (start 5.695 10.18) (end -3.155 10.18) (layer F.Fab) (width 0.1))
  (fp_line (start 5.145 -4.56) (end -2.605 -4.56) (layer F.Fab) (width 0.1))
  (fp_line (start 5.695 -5.1) (end -3.155 -5.1) (layer F.Fab) (width 0.1))
  (fp_line (start -2.605 4.79) (end -3.155 4.79) (layer F.Fab) (width 0.1))
  (fp_line (start -2.605 0.29) (end -3.155 0.29) (layer F.Fab) (width 0.1))
  (fp_line (start -2.605 4.79) (end -2.605 9.62) (layer F.Fab) (width 0.1))
  (fp_line (start -2.605 -4.56) (end -2.605 0.29) (layer F.Fab) (width 0.1))
  (fp_line (start -3.155 -5.1) (end -3.155 10.18) (layer F.Fab) (width 0.1))
  (fp_line (start 5.145 -4.56) (end 5.145 9.62) (layer F.Fab) (width 0.1))
  (fp_line (start 5.695 -5.1) (end 5.695 10.18) (layer F.Fab) (width 0.1))
  (fp_text user %R (at 1.27 2.54) (layer F.Fab)
    (effects (font (size 1 1) (thickness 0.15)))
  )
  (pad 6 thru_hole oval (at 2.54 5.08) (size 1.7272 1.7272) (drill 1.016) (layers *.Cu *.Mask))
  (pad 5 thru_hole oval (at 0 5.08) (size 1.7272 1.7272) (drill 1.016) (layers *.Cu *.Mask))
  (pad 4 thru_hole oval (at 2.54 2.54) (size 1.7272 1.7272) (drill 1.016) (layers *.Cu *.Mask))
  (pad 3 thru_hole oval (at 0 2.54) (size 1.7272 1.7272) (drill 1.016) (layers *.Cu *.Mask))
  (pad 2 thru_hole oval (at 2.54 0) (size 1.7272 1.7272) (drill 1.016) (layers *.Cu *.Mask))
  (pad 1 thru_hole rect (at 0 0) (size 1.7272 1.7272) (drill 1.016) (layers *.Cu *.Mask))
  (model ${KIPRJMOD}/3d_models/IDC-Header_2x03_P2.54mm_Vertical.wrl
    (at (xyz 0 0 0))
    (scale (xyz 1 1 1))
    (rotate (xyz 0 0 0))
  )
)
