(module L_Coilcraft_XxL4030 (layer F.Cu) (tedit 5EA88DB3)
  (descr "L_Coilcraft_XxL4030 https://www.coilcraft.com/pdfs/xfl4030.pdf")
  (tags "L Coilcraft XxL4030")
  (attr smd)
  (fp_text reference REF** (at 0 -3) (layer F.SilkS)
    (effects (font (size 1 1) (thickness 0.15)))
  )
  (fp_text value L_Coilcraft_XxL4030 (at 0 2.6) (layer F.Fab)
    (effects (font (size 0.3 0.3) (thickness 0.05)))
  )
  (fp_line (start -2 -2) (end 2 -2) (layer F.Fab) (width 0.1))
  (fp_line (start 2 -2) (end 2 2) (layer F.Fab) (width 0.1))
  (fp_line (start 2 2) (end -2 2) (layer F.Fab) (width 0.1))
  (fp_line (start -2 2) (end -2 -2) (layer F.Fab) (width 0.1))
  (fp_line (start -2.26 -2.26) (end 2.26 -2.26) (layer F.CrtYd) (width 0.05))
  (fp_line (start 2.26 -2.26) (end 2.26 2.26) (layer F.CrtYd) (width 0.05))
  (fp_line (start 2.26 2.26) (end -2.26 2.26) (layer F.CrtYd) (width 0.05))
  (fp_line (start -2.26 2.26) (end -2.26 -2.26) (layer F.CrtYd) (width 0.05))
  (fp_line (start -2.154 -2.154) (end 2.154 -2.154) (layer F.SilkS) (width 0.12))
  (fp_line (start 2.154 2.154) (end -2.154 2.154) (layer F.SilkS) (width 0.12))
  (fp_text user %R (at 0 0) (layer F.Fab)
    (effects (font (size 1 1) (thickness 0.15)))
  )
  (pad 2 smd rect (at 1.185 0) (size 0.98 3.4) (layers F.Cu F.Paste F.Mask))
  (pad 1 smd rect (at -1.185 0) (size 0.98 3.4) (layers F.Cu F.Paste F.Mask))
  (model ${KIPRJMOD}/3d_models/XAL4030-332MEC.step
    (offset (xyz -1.78 1.625 0))
    (scale (xyz 1 1 1))
    (rotate (xyz 0 0 0))
  )
)
