(module QSOP-16_3.9x4.9mm_P0.635mm (layer F.Cu) (tedit 5EA88E61)
  (descr "16-Lead Plastic Shrink Small Outline Narrow Body (QR)-.150\" Body [QSOP] (see Microchip Packaging Specification 00000049BS.pdf)")
  (tags "SSOP 0.635")
  (attr smd)
  (fp_text reference REF** (at 0 -3.5) (layer F.SilkS)
    (effects (font (size 1 1) (thickness 0.15)))
  )
  (fp_text value QSOP-16_3.9x4.9mm_P0.635mm (at 0 3.2) (layer F.Fab)
    (effects (font (size 0.3 0.3) (thickness 0.05)))
  )
  (fp_text user %R (at 0 0) (layer F.Fab)
    (effects (font (size 0.7 0.7) (thickness 0.15)))
  )
  (fp_line (start -3.525 -2.725) (end 1.8586 -2.725) (layer F.SilkS) (width 0.15))
  (fp_line (start -1.8543 2.675) (end 1.8543 2.675) (layer F.SilkS) (width 0.15))
  (fp_line (start -3.7 2.8) (end 3.7 2.8) (layer F.CrtYd) (width 0.05))
  (fp_line (start -3.7 -2.85) (end 3.7 -2.85) (layer F.CrtYd) (width 0.05))
  (fp_line (start 3.7 -2.85) (end 3.7 2.8) (layer F.CrtYd) (width 0.05))
  (fp_line (start -3.7 -2.85) (end -3.7 2.8) (layer F.CrtYd) (width 0.05))
  (fp_line (start -1.95 -1.45) (end -0.95 -2.45) (layer F.Fab) (width 0.15))
  (fp_line (start -1.95 2.45) (end -1.95 -1.45) (layer F.Fab) (width 0.15))
  (fp_line (start 1.95 2.45) (end -1.95 2.45) (layer F.Fab) (width 0.15))
  (fp_line (start 1.95 -2.45) (end 1.95 2.45) (layer F.Fab) (width 0.15))
  (fp_line (start -0.95 -2.45) (end 1.95 -2.45) (layer F.Fab) (width 0.15))
  (pad 16 smd rect (at 2.6543 -2.2225) (size 1.6 0.41) (layers F.Cu F.Paste F.Mask))
  (pad 15 smd rect (at 2.6543 -1.5875) (size 1.6 0.41) (layers F.Cu F.Paste F.Mask))
  (pad 14 smd rect (at 2.6543 -0.9525) (size 1.6 0.41) (layers F.Cu F.Paste F.Mask))
  (pad 13 smd rect (at 2.6543 -0.3175) (size 1.6 0.41) (layers F.Cu F.Paste F.Mask))
  (pad 12 smd rect (at 2.6543 0.3175) (size 1.6 0.41) (layers F.Cu F.Paste F.Mask))
  (pad 11 smd rect (at 2.6543 0.9525) (size 1.6 0.41) (layers F.Cu F.Paste F.Mask))
  (pad 10 smd rect (at 2.6543 1.5875) (size 1.6 0.41) (layers F.Cu F.Paste F.Mask))
  (pad 9 smd rect (at 2.6543 2.2225) (size 1.6 0.41) (layers F.Cu F.Paste F.Mask))
  (pad 8 smd rect (at -2.6543 2.2225) (size 1.6 0.41) (layers F.Cu F.Paste F.Mask))
  (pad 7 smd rect (at -2.6543 1.5875) (size 1.6 0.41) (layers F.Cu F.Paste F.Mask))
  (pad 6 smd rect (at -2.6543 0.9525) (size 1.6 0.41) (layers F.Cu F.Paste F.Mask))
  (pad 5 smd rect (at -2.6543 0.3175) (size 1.6 0.41) (layers F.Cu F.Paste F.Mask))
  (pad 4 smd rect (at -2.6543 -0.3175) (size 1.6 0.41) (layers F.Cu F.Paste F.Mask))
  (pad 3 smd rect (at -2.6543 -0.9525) (size 1.6 0.41) (layers F.Cu F.Paste F.Mask))
  (pad 2 smd rect (at -2.6543 -1.5875) (size 1.6 0.41) (layers F.Cu F.Paste F.Mask))
  (pad 1 smd rect (at -2.6543 -2.2225) (size 1.6 0.41) (layers F.Cu F.Paste F.Mask))
  (model ${KIPRJMOD}/3d_models/QSOP-16_3.9x4.9mm_P0.635mm.wrl
    (at (xyz 0 0 0))
    (scale (xyz 1 1 1))
    (rotate (xyz 0 0 0))
  )
)
